-------------------------------------------------------------------------------
Test set: com.uwasa.e2001469.thetodoserver.TaskControllerTest
-------------------------------------------------------------------------------
Tests run: 2, Failures: 0, Errors: 0, Skipped: 0, Time elapsed: 1.744 s - in com.uwasa.e2001469.thetodoserver.TaskControllerTest
